dlcd/bcdadder/bcdadder.sim/sim_1/behav/xsim/simulate.log
Time resolution is 1 ps
Time = 0 | Cin = 0 | A =  0, B =  0 | Sum =  0, Cout = 0
Time = 10000 | Cin = 0 | A =  0, B =  1 | Sum =  1, Cout = 0
Time = 20000 | Cin = 0 | A =  0, B =  2 | Sum =  2, Cout = 0
Time = 30000 | Cin = 0 | A =  0, B =  3 | Sum =  3, Cout = 0
Time = 40000 | Cin = 0 | A =  0, B =  4 | Sum =  4, Cout = 0
Time = 50000 | Cin = 0 | A =  0, B =  5 | Sum =  5, Cout = 0
Time = 60000 | Cin = 0 | A =  0, B =  6 | Sum =  6, Cout = 0
Time = 70000 | Cin = 0 | A =  0, B =  7 | Sum =  7, Cout = 0
Time = 80000 | Cin = 0 | A =  0, B =  8 | Sum =  8, Cout = 0
Time = 90000 | Cin = 0 | A =  0, B =  9 | Sum =  9, Cout = 0
Time = 100000 | Cin = 0 | A =  1, B =  0 | Sum =  1, Cout = 0
Time = 110000 | Cin = 0 | A =  1, B =  1 | Sum =  2, Cout = 0
Time = 120000 | Cin = 0 | A =  1, B =  2 | Sum =  3, Cout = 0
Time = 130000 | Cin = 0 | A =  1, B =  3 | Sum =  4, Cout = 0
Time = 140000 | Cin = 0 | A =  1, B =  4 | Sum =  5, Cout = 0
Time = 150000 | Cin = 0 | A =  1, B =  5 | Sum =  6, Cout = 0
Time = 160000 | Cin = 0 | A =  1, B =  6 | Sum =  7, Cout = 0
Time = 170000 | Cin = 0 | A =  1, B =  7 | Sum =  8, Cout = 0
Time = 180000 | Cin = 0 | A =  1, B =  8 | Sum =  9, Cout = 0
Time = 190000 | Cin = 0 | A =  1, B =  9 | Sum =  0, Cout = 1
Time = 200000 | Cin = 0 | A =  2, B =  0 | Sum =  2, Cout = 0
Time = 210000 | Cin = 0 | A =  2, B =  1 | Sum =  3, Cout = 0
Time = 220000 | Cin = 0 | A =  2, B =  2 | Sum =  4, Cout = 0
Time = 230000 | Cin = 0 | A =  2, B =  3 | Sum =  5, Cout = 0
Time = 240000 | Cin = 0 | A =  2, B =  4 | Sum =  6, Cout = 0
Time = 250000 | Cin = 0 | A =  2, B =  5 | Sum =  7, Cout = 0
Time = 260000 | Cin = 0 | A =  2, B =  6 | Sum =  8, Cout = 0
Time = 270000 | Cin = 0 | A =  2, B =  7 | Sum =  9, Cout = 0
Time = 280000 | Cin = 0 | A =  2, B =  8 | Sum =  0, Cout = 1
Time = 290000 | Cin = 0 | A =  2, B =  9 | Sum =  1, Cout = 1
Time = 300000 | Cin = 0 | A =  3, B =  0 | Sum =  3, Cout = 0
Time = 310000 | Cin = 0 | A =  3, B =  1 | Sum =  4, Cout = 0
Time = 320000 | Cin = 0 | A =  3, B =  2 | Sum =  5, Cout = 0
Time = 330000 | Cin = 0 | A =  3, B =  3 | Sum =  6, Cout = 0
Time = 340000 | Cin = 0 | A =  3, B =  4 | Sum =  7, Cout = 0
Time = 350000 | Cin = 0 | A =  3, B =  5 | Sum =  8, Cout = 0
Time = 360000 | Cin = 0 | A =  3, B =  6 | Sum =  9, Cout = 0
Time = 370000 | Cin = 0 | A =  3, B =  7 | Sum =  0, Cout = 1
Time = 380000 | Cin = 0 | A =  3, B =  8 | Sum =  1, Cout = 1
Time = 390000 | Cin = 0 | A =  3, B =  9 | Sum =  2, Cout = 1
Time = 400000 | Cin = 0 | A =  4, B =  0 | Sum =  4, Cout = 0
Time = 410000 | Cin = 0 | A =  4, B =  1 | Sum =  5, Cout = 0
Time = 420000 | Cin = 0 | A =  4, B =  2 | Sum =  6, Cout = 0
Time = 430000 | Cin = 0 | A =  4, B =  3 | Sum =  7, Cout = 0
Time = 440000 | Cin = 0 | A =  4, B =  4 | Sum =  8, Cout = 0
Time = 450000 | Cin = 0 | A =  4, B =  5 | Sum =  9, Cout = 0
Time = 460000 | Cin = 0 | A =  4, B =  6 | Sum =  0, Cout = 1
Time = 470000 | Cin = 0 | A =  4, B =  7 | Sum =  1, Cout = 1
Time = 480000 | Cin = 0 | A =  4, B =  8 | Sum =  2, Cout = 1
Time = 490000 | Cin = 0 | A =  4, B =  9 | Sum =  3, Cout = 1
Time = 500000 | Cin = 0 | A =  5, B =  0 | Sum =  5, Cout = 0
Time = 510000 | Cin = 0 | A =  5, B =  1 | Sum =  6, Cout = 0
Time = 520000 | Cin = 0 | A =  5, B =  2 | Sum =  7, Cout = 0
Time = 530000 | Cin = 0 | A =  5, B =  3 | Sum =  8, Cout = 0
Time = 540000 | Cin = 0 | A =  5, B =  4 | Sum =  9, Cout = 0
Time = 550000 | Cin = 0 | A =  5, B =  5 | Sum =  0, Cout = 1
Time = 560000 | Cin = 0 | A =  5, B =  6 | Sum =  1, Cout = 1
Time = 570000 | Cin = 0 | A =  5, B =  7 | Sum =  2, Cout = 1
Time = 580000 | Cin = 0 | A =  5, B =  8 | Sum =  3, Cout = 1
Time = 590000 | Cin = 0 | A =  5, B =  9 | Sum =  4, Cout = 1
Time = 600000 | Cin = 0 | A =  6, B =  0 | Sum =  6, Cout = 0
Time = 610000 | Cin = 0 | A =  6, B =  1 | Sum =  7, Cout = 0
Time = 620000 | Cin = 0 | A =  6, B =  2 | Sum =  8, Cout = 0
Time = 630000 | Cin = 0 | A =  6, B =  3 | Sum =  9, Cout = 0
Time = 640000 | Cin = 0 | A =  6, B =  4 | Sum =  0, Cout = 1
Time = 650000 | Cin = 0 | A =  6, B =  5 | Sum =  1, Cout = 1
Time = 660000 | Cin = 0 | A =  6, B =  6 | Sum =  2, Cout = 1
Time = 670000 | Cin = 0 | A =  6, B =  7 | Sum =  3, Cout = 1
Time = 680000 | Cin = 0 | A =  6, B =  8 | Sum =  4, Cout = 1
Time = 690000 | Cin = 0 | A =  6, B =  9 | Sum =  5, Cout = 1
Time = 700000 | Cin = 0 | A =  7, B =  0 | Sum =  7, Cout = 0
Time = 710000 | Cin = 0 | A =  7, B =  1 | Sum =  8, Cout = 0
Time = 720000 | Cin = 0 | A =  7, B =  2 | Sum =  9, Cout = 0
Time = 730000 | Cin = 0 | A =  7, B =  3 | Sum =  0, Cout = 1
Time = 740000 | Cin = 0 | A =  7, B =  4 | Sum =  1, Cout = 1
Time = 750000 | Cin = 0 | A =  7, B =  5 | Sum =  2, Cout = 1
Time = 760000 | Cin = 0 | A =  7, B =  6 | Sum =  3, Cout = 1
Time = 770000 | Cin = 0 | A =  7, B =  7 | Sum =  4, Cout = 1
Time = 780000 | Cin = 0 | A =  7, B =  8 | Sum =  5, Cout = 1
Time = 790000 | Cin = 0 | A =  7, B =  9 | Sum =  6, Cout = 1
Time = 800000 | Cin = 0 | A =  8, B =  0 | Sum =  8, Cout = 0
Time = 810000 | Cin = 0 | A =  8, B =  1 | Sum =  9, Cout = 0
Time = 820000 | Cin = 0 | A =  8, B =  2 | Sum =  0, Cout = 1
Time = 830000 | Cin = 0 | A =  8, B =  3 | Sum =  1, Cout = 1
Time = 840000 | Cin = 0 | A =  8, B =  4 | Sum =  2, Cout = 1
Time = 850000 | Cin = 0 | A =  8, B =  5 | Sum =  3, Cout = 1
Time = 860000 | Cin = 0 | A =  8, B =  6 | Sum =  4, Cout = 1
Time = 870000 | Cin = 0 | A =  8, B =  7 | Sum =  5, Cout = 1
Time = 880000 | Cin = 0 | A =  8, B =  8 | Sum =  6, Cout = 1
Time = 890000 | Cin = 0 | A =  8, B =  9 | Sum =  7, Cout = 1
Time = 900000 | Cin = 0 | A =  9, B =  0 | Sum =  9, Cout = 0
Time = 910000 | Cin = 0 | A =  9, B =  1 | Sum =  0, Cout = 1
Time = 920000 | Cin = 0 | A =  9, B =  2 | Sum =  1, Cout = 1
Time = 930000 | Cin = 0 | A =  9, B =  3 | Sum =  2, Cout = 1
Time = 940000 | Cin = 0 | A =  9, B =  4 | Sum =  3, Cout = 1
Time = 950000 | Cin = 0 | A =  9, B =  5 | Sum =  4, Cout = 1
Time = 960000 | Cin = 0 | A =  9, B =  6 | Sum =  5, Cout = 1
Time = 970000 | Cin = 0 | A =  9, B =  7 | Sum =  6, Cout = 1
Time = 980000 | Cin = 0 | A =  9, B =  8 | Sum =  7, Cout = 1
Time = 990000 | Cin = 0 | A =  9, B =  9 | Sum =  8, Cout = 1
Time = 1000000 | Cin = 1 | A =  0, B =  0 | Sum =  1, Cout = 0
